FCR_Process_BD
…
## Adding missing grouping variables: `year(datetime)`, `month(datetime)`
## `summarise()` has grouped output by 'year(datetime)'. You can override using
## the `.groups` argument.

## # A tibble: 57 × 4
## # Groups:   year(datetime) [5]
##    `year(datetime)` `month(datetime)` co2_available ch4_available
##               <dbl>             <dbl>         <dbl>         <dbl>
##  1             2020                 4          78.6          56.7
##  2             2020                 5          83.5          57.8
##  3             2020                 6          82.2          59.0
##  4             2020                 7          77.8          70.7
##  5             2020                 8          21.8          16.3
##  6             2020                 9          79.8          73.3
##  7             2020                10          85.1          60.3
##  8             2020                11          87.8          78.1
##  9             2020                12          95.3          55.8
## 10             2021                 1          94.1          72.8
## # ℹ 47 more rows
…
##   co2_available ch4_available
## 1         27103         24817

# Data availability by month
eddy_fcr %>% group_by(year(datetime), month(datetime)) %>% select(datetime, co2_flux_umolm2s, ch4_flux_umolm2s) %>% 
  summarise(co2_available = 100-sum(is.na(co2_flux_umolm2s))/n()*100,
            ch4_available = 100-sum(is.na(ch4_flux_umolm2s))/n()*100)

## Adding missing grouping variables: `year(datetime)`, `month(datetime)`
## `summarise()` has grouped output by 'year(datetime)'. You can override using
## the `.groups` argument.

## # A tibble: 57 × 4
## # Groups:   year(datetime) [5]
##    `year(datetime)` `month(datetime)` co2_available ch4_available
##               <dbl>             <dbl>         <dbl>         <dbl>
##  1             2020                 4         36.7          25.2 
##  2             2020                 5         34.8          26.5 
##  3             2020                 6         38.5          27.3 
##  4             2020                 7         41.4          31.0 
##  5             2020                 8          7.26          4.91
##  6             2020                 9         38.3          35.3 
##  7             2020                10         40.5          27.4 
##  8             2020                11         40.5          37.8 
##  9             2020                12         45.4          25.5 
## 10             2021                 1         46.6          35.9 
## # ℹ 47 more rows
…
##   co2_available ch4_available
## 1         19950         19005

# Counting data availability by month
eddy_fcr3 %>% group_by(year(DateTime), month(DateTime)) %>% 
  select(DateTime, NEE, ch4_flux) %>% 
  summarise(co2_available = 100-sum(is.na(NEE))/n()*100,
            ch4_available = 100-sum(is.na(ch4_flux))/n()*100)

## Adding missing grouping variables: `year(DateTime)`, `month(DateTime)`
## `summarise()` has grouped output by 'year(DateTime)'. You can override using
## the `.groups` argument.

## # A tibble: 57 × 4
## # Groups:   year(DateTime) [5]
##    `year(DateTime)` `month(DateTime)` co2_available ch4_available
##               <dbl>             <dbl>         <dbl>         <dbl>
##  1             2020                 4         26.0          17.8 
##  2             2020                 5         25.1          20.2 
##  3             2020                 6         26.0          20   
##  4             2020                 7         29.0          22.3 
##  5             2020                 8          5.51          3.70
##  6             2020                 9         29.2          25.9 
##  7             2020                10         31.7          21.8 
##  8             2020                11         31.5          30.5 
##  9             2020                12         32.7          17.3 
## 10             2021                 1         34.7          27.5 
## # ℹ 47 more rows
…
